A,A,A,A,A,A,A,A,A,A,A,A,A,A,F,A,A,A,A,A,A,A,A,A,A,A,A,A,F,A
A,A,G,G,G,G,G,A,A,A,A,A,A,A,A,A,A,A,A,A,A,A,A,A,A,A,A,F,F,F
A,G,H,G,G,H,G,H,A,A,A,A,A,A,A,A,A,D,D,D,D,A,A,A,A,A,A,A,F,A
G,H,H,G,H,H,H,H,H,A,A,A,A,A,A,D,D,D,D,D,D,D,D,A,A,A,A,A,A,A
G,G,H,G,G,H,H,H,H,A,A,A,A,A,D,D,D,B,B,B,B,D,D,D,A,A,A,A,A,A
G,H,H,G,H,H,H,G,H,A,A,A,A,D,D,D,B,D,D,B,B,B,D,D,D,A,A,A,A,A
G,G,H,G,G,H,H,G,G,A,A,A,D,D,D,B,D,D,B,B,B,B,B,D,D,D,A,A,A,A
A,G,G,G,G,H,G,G,A,A,A,D,D,B,D,B,B,B,B,B,B,B,B,D,B,D,D,A,A,A
A,A,G,G,G,G,G,A,A,A,A,D,E,B,D,B,B,B,B,B,B,B,B,D,B,E,D,A,A,A
A,A,A,A,A,A,A,A,A,A,A,D,E,B,D,B,B,B,B,B,B,B,B,D,B,E,D,A,A,A
A,A,A,A,A,A,A,A,A,A,A,D,E,C,D,D,B,B,B,B,B,B,B,D,C,E,D,A,A,A
A,A,A,A,A,A,A,A,A,A,A,D,E,E,E,D,D,B,B,B,B,B,D,D,E,E,D,A,A,A
A,A,A,A,A,A,A,A,A,A,A,D,E,B,C,C,D,D,D,D,D,D,C,C,B,E,D,A,A,A
A,A,A,A,A,A,F,A,A,A,A,D,D,D,C,D,C,C,C,C,C,C,D,C,D,D,D,A,A,A
A,A,A,A,A,F,F,F,A,A,A,D,D,D,C,D,D,D,D,D,D,D,D,C,D,D,D,A,A,A
A,A,A,A,A,A,F,A,A,A,A,D,D,D,A,E,C,C,D,D,C,C,D,E,D,E,D,A,A,A
A,A,A,A,A,A,A,A,A,A,A,D,D,D,A,E,C,D,C,C,D,C,D,E,D,D,D,A,A,A
A,A,A,F,A,A,A,A,A,A,D,E,E,E,A,E,D,D,D,D,D,D,D,E,E,E,E,D,A,A
A,A,A,A,A,A,A,A,A,A,D,D,D,A,E,E,E,C,C,C,C,E,E,E,A,D,D,D,A,A
A,A,A,A,A,A,A,A,A,A,D,E,E,A,E,C,C,C,C,C,C,C,C,E,A,E,E,D,A,A
A,A,A,A,A,A,A,A,A,A,E,E,A,A,A,D,D,D,D,D,D,D,D,D,A,A,E,E,A,A
A,A,A,A,A,A,A,A,A,A,C,C,C,A,D,D,C,B,B,B,B,C,D,D,A,C,C,C,A,A
A,A,A,A,A,A,A,A,A,A,D,D,E,C,E,C,D,D,D,D,D,D,C,E,C,E,D,D,A,A
A,A,A,A,A,A,A,A,A,D,D,D,D,C,E,C,C,C,C,C,C,C,C,E,C,D,D,D,D,A
A,A,A,F,A,A,A,A,A,D,D,D,A,A,D,C,C,D,D,D,D,C,C,D,A,A,D,D,D,A
A,A,A,A,A,A,A,A,A,D,D,D,A,D,D,C,E,E,D,D,E,E,C,D,D,A,D,D,D,A
A,A,A,A,A,A,A,A,A,A,D,D,A,D,D,D,D,D,A,A,D,D,D,D,D,A,D,D,A,A
A,A,A,A,A,A,A,A,A,A,A,A,A,C,C,C,C,C,A,A,C,C,C,C,C,A,A,A,A,A
A,A,A,A,A,A,A,A,A,A,A,A,A,E,E,E,C,E,A,A,E,C,D,D,D,A,A,A,A,A
A,A,A,A,A,A,A,A,A,A,A,A,A,D,D,D,E,E,A,A,A,E,D,D,D,A,A,A,A,A
A,A,A,A,A,A,A,A,A,A,A,A,A,D,D,D,E,E,A,A,A,E,E,D,D,A,A,A,A,A
A,A,A,A,A,A,A,A,A,A,A,A,A,D,E,E,E,E,A,A,A,E,E,D,D,A,A,A,A,A
A,A,A,A,A,A,A,A,A,A,A,A,A,D,D,D,E,E,A,A,A,E,D,D,D,A,A,A,A,A
A,A,A,A,A,A,A,A,A,D,D,D,D,D,D,E,E,E,D,D,D,E,E,D,D,D,D,D,D,D
A,A,A,A,D,D,D,D,D,D,D,D,D,D,C,C,C,B,D,D,D,B,C,C,C,D,D,D,D,D
A,D,D,E,E,E,E,D,D,D,D,D,B,B,B,B,C,B,D,D,D,B,C,B,B,B,B,E,E,D
D,D,D,D,D,D,D,E,E,E,D,D,B,B,B,C,C,B,D,D,D,B,C,C,B,B,B,D,E,E
E,E,E,E,E,E,E,E,E,E,E,C,B,B,B,B,B,B,C,C,C,B,B,B,B,B,B,C,E,E
E,E,C,C,C,E,E,E,E,E,C,C,C,C,C,C,C,C,C,C,C,C,C,C,C,C,C,C,C,E
C,C,C,C,C,C,C,C,E,E,E,E,C,C,C,C,C,C,C,C,C,C,C,C,C,C,E,E,E,E
